<?xml version="1.0" encoding="UTF-8" standalone="no"?>
<svg
   xmlns:dc="http://purl.org/dc/elements/1.1/"
   xmlns:cc="http://creativecommons.org/ns#"
   xmlns:rdf="http://www.w3.org/1999/02/22-rdf-syntax-ns#"
   xmlns:svg="http://www.w3.org/2000/svg"
   xmlns="http://www.w3.org/2000/svg"
   xmlns:xlink="http://www.w3.org/1999/xlink"
   xmlns:sodipodi="http://sodipodi.sourceforge.net/DTD/sodipodi-0.dtd"
   xmlns:inkscape="http://www.inkscape.org/namespaces/inkscape"
   version="1.1"
   height="242.54979"
   width="167.01289"
   viewBox="-0.2 -236 167.07501 242.5498"
   id="svg4215"
   sodipodi:docname="Svg-cards-2.0.svg"
   inkscape:version="0.92.4 5da689c313, 2019-01-14">
  <metadata
     id="metadata4219">
    <rdf:RDF>
      <cc:Work
         rdf:about="">
        <dc:format>image/svg+xml</dc:format>
        <dc:type
           rdf:resource="http://purl.org/dc/dcmitype/StillImage" />
        <dc:title></dc:title>
      </cc:Work>
    </rdf:RDF>
  </metadata>
  <sodipodi:namedview
     pagecolor="#ffffff"
     bordercolor="#666666"
     borderopacity="1"
     objecttolerance="10"
     gridtolerance="10"
     guidetolerance="10"
     inkscape:pageopacity="0"
     inkscape:pageshadow="2"
     inkscape:window-width="2527"
     inkscape:window-height="1403"
     id="namedview4217"
     showgrid="false"
     fit-margin-top="0"
     fit-margin-left="0"
     fit-margin-right="0"
     fit-margin-bottom="0"
     inkscape:zoom="3.9916744"
     inkscape:cx="142.82259"
     inkscape:cy="118.58646"
     inkscape:window-x="0"
     inkscape:window-y="33"
     inkscape:window-maximized="1"
     inkscape:current-layer="svg4215" />
  <!-- SVG-cards 2.0.1							                        	-->
  <!-- This set of SVG files is a complete cards game with figures, numbers	-->
  <!--	and backs of cards completely designed in SVG.		        		-->
  <!--								                                 		-->
  <!--	Copyright (C) 2005 David Bellot				                		-->
  <!--										                                -->
  <!--	This library is free software; you can redistribute it and/or		-->
  <!--	modify it under the terms of the GNU Lesser General Public	     	-->
  <!--	License as published by the Free Software Foundation; either		-->
  <!--	version 2 of the License, or (at your option) any later version		-->
  <!--									                                	-->
  <!--	This library is distributed in the hope that it will be useful,		-->
  <!--	but WITHOUT ANY WARRANTY; without even the implied warranty of		-->
  <!--	MERCHANTABILITY or FITNESS FOR A PARTICULAR PURPOSE.  See the GNU	-->
  <!--	Lesser General Public License for more details.		        		-->
  <!--							                                			-->
  <!--	You should have received a copy of the GNU Lesser General Public	-->
  <!--	License along with this library; if not, write to the Free Software	-->
  <!--	Foundation, Inc., 59 Temple Place, Suite 330, Boston, MA 02111-1307	-->
  <!--	USA -->
  <!--                                                                      -->
  <!--	Contact the author David Bellot at david.bellot@free.fr	     		-->
  <defs
     id="defs1488">
    <g
       id="ace">
      <text
         transform="scale(0.56453,1.05741)"
         font-weight="bold"
         font-size="43"
         id="text845"
         style="font-weight:bold;font-size:43px;font-family:'DejaVu Serif'">A</text>
    </g>
    <g
       id="base">
      <path
         style="fill:#ffffff;stroke:#000000;stroke-width:0.5"
         d="m 0,0 c 0,3.78 3.09,6.87 6.87,6.87 h 152.845 c 3.77,0 6.86,-3.09 6.86,-6.87 v -228.4 c 0,-3.78 -3.09,-6.87 -6.86,-6.87 H 6.87 c -3.78,0 -6.87,3.09 -6.87,6.87 z"
         id="path877"
         inkscape:connector-curvature="0" />
    </g>
    <g
       id="club">
      <path
         d="m 3.35,4.66 c 0,-1.81 -1.51,-3.28 -3.38,-3.28 -1.87,0 -3.38,1.47 -3.38,3.28 0,1.81 1.51,3.28 3.38,3.28 1.87,0 3.38,-1.47 3.38,-3.28 z"
         id="path880"
         inkscape:connector-curvature="0" />
      <path
         d="m 7.71,-1.55 c 0,-1.81 -1.51,-3.28 -3.38,-3.28 -1.87,0 -3.38,1.47 -3.38,3.28 0,1.81 1.51,3.28 3.38,3.28 1.87,0 3.38,-1.47 3.38,-3.28 z"
         id="path882"
         inkscape:connector-curvature="0" />
      <path
         d="m -0.95,-1.57 c 0,-0.66 -0.2,-1.28 -0.55,-1.8 -0.6,-0.89 -1.65,-1.48 -2.83,-1.48 -1.87,0 -3.38,1.47 -3.38,3.28 0,1.81 1.51,3.28 3.38,3.28 1.87,0 3.38,-1.47 3.38,-3.28 z"
         id="path884"
         inkscape:connector-curvature="0" />
      <path
         d="m 3.94,-7.94 c -1.67,0 -2.55,1.36 -3.01,2.72 -0.46,1.36 -0.5,2.72 -0.5,2.72 h -0.86 c 0,0 -0.16,-5.43 -3.5,-5.44 z"
         id="path886"
         inkscape:connector-curvature="0" />
      <path
         d="m -2.32,2.25 c 1.9,-1.9 1.9,-4.75 1.9,-4.75 l 0.85,-0.01 c 0,0 0,2.91 1.85,4.76"
         id="path888"
         inkscape:connector-curvature="0" />
      <path
         d="m -1.94,-3.85 c 1.9,1.9 4.75,1.9 4.75,1.9 v 0.85 c 0,0 -2.91,0 -4.76,1.85"
         id="path890"
         inkscape:connector-curvature="0" />
      <path
         d="m 1.87,-3.86 c -1.9,1.9 -4.75,1.9 -4.75,1.9 v 0.85 c 0,0 2.91,0 4.76,1.85"
         id="path892"
         inkscape:connector-curvature="0" />
    </g>
    <g
       id="laurel">
      <path
         d="m 567.72,849.31 c 13.24,5.42 -0.52,13.05 0,0 m -183,0 c 0,20.04 15.36,3.37 0,0 m 26,-12.72 c 8.06,-0.17 20.93,10.22 7,13.72 -9.1,2.29 -19.64,-11.26 -7,-13.72 m 66,13.72 c -26.64,-8.46 6.27,-29.49 0,0 m -94,-21 c 5.04,10.57 8.17,29.05 23,29 -5.71,-8.01 -10.5,-10.74 -12,-21 3.07,2.41 18.07,16.4 16.54,19.91 -7.65,17.63 -28.13,-0.08 -35.54,-6.76 -19.17,-17.23 -21.13,-17.37 8,-21.15 m -34.8,-1.44 c 2.8,5.63 -1.27,7.24 0,0 m 175.8,-6.56 c -1.12,2.22 -2.79,3.55 -5,4 0.64,-2.43 2.46,-3.86 5,-4 m -10,1 c -2.65,-1.32 -5.32,-1.65 -8,-1 2.43,2.28 3.77,4.95 4,8 h -5 c 3.89,13.64 3.51,23.72 -8.83,33.29 -5,3.88 -12.88,9.53 -15.46,2.71 4.36,-6.65 17.58,-68.86 33.29,-43 m -170,3 c -2.52,16.89 -30.63,1.29 -30,-10 9.93,4.44 19.45,5.38 30,10 m 151,-10 c -2.37,5.71 -6.21,10.2 -12,12 -0.31,-6.14 4.19,-16.05 12,-12 m -147,-2 c 5.5,7.36 -7.44,9.36 0,0 m 57,12 c 0.23,3.2 -48.43,4.72 -47,-6 11.56,2.92 7.32,-8.74 20.13,-5.28 5.33,1.44 11.86,1.05 16.72,3.28 4.79,4.9 3.47,7.94 10.15,8 m 210,-10 c 4.82,0.17 9.46,-1.14 14,-3 -4.76,-0.84 -9.89,0.29 -14,3 m -92,-4 1,1 c -1.3,5.36 -9.32,7.09 -1,-1 m -92,-6 c 3.94,5.01 7.66,11.94 12,15 3.1,-6.1 -4.37,-19.09 -12,-15 m 11,27 c -9.25,-2.31 -29.32,-22.39 -18.05,-30.28 18.14,-12.7 26.8,10.99 29.38,23.12 1.33,6.27 27.78,39.44 14.66,40.86 -7.39,0.54 -33.01,-26.97 -25.99,-33.7 m 156,-39 c 1.38,0.43 2.12,5.49 5,0 -2.1,-1.11 -3.21,0.32 -5,0 m -314,-17 c -1.15,5.4 -0.81,10.73 1,16 -6.44,-3.97 -19.27,-21.87 -1,-16 m 278,-3 c 6.29,28.47 -39.42,10.06 -39,33 -15.53,-20.04 18.31,-38.86 14,-20 8.51,-3.78 16.35,-9.22 25,-13 m -326,-12 c 11.28,8.71 25.55,12.36 34.94,23.17 1.63,1.87 10.61,11.35 0.06,9.83 -3.59,0.94 -7.08,-7.42 -8.08,-8.33 -9.7,-5.56 -24.55,-13.73 -26.92,-24.67 m 308,14 c -5.33,-0.96 -10.49,-7.11 -7,-12.98 6.48,-10.89 13.19,4.75 7,12.98 m -54,-21 c -0.33,3.33 -0.67,6.67 -1,10 -4.1,-3.19 -3.21,-7.41 1,-10 m -9,-2 c 0.36,4.82 -0.09,10.01 0,15 -4.35,-3.89 -4.2,-10.64 0,-15 m 132,-6 c -0.93,2.39 -2,4.25 -2,7 2.64,-0.79 4.31,-2.79 5,-6 -0.05,-0.08 -3.02,-1.91 -3,-1 m -385,0 c 4.38,3.44 7.01,7.46 7,13 -5.47,-2.32 -8.33,-7.32 -7,-13 m 400,-10 c -0.67,2.67 -1.33,5.33 -2,8 3.54,-3.27 2.17,-9.41 2,-8 m 16,-6 c -5.18,15.26 -24.9,24.52 -28,37 8.8,-2.42 17.88,-3.76 27,-4 -3.98,-3.07 -9.41,-2.06 -15,-2 5.25,-7.69 14.61,-9.06 21,-14 h -4 c 2.9,-2.52 4.9,-5.52 6,-9 -1.67,0.33 -3.33,0.67 -5,1 -0.49,-22.98 0.18,-2.67 -2,-9 m 129,-10 c -1.29,13.48 -7.89,37.37 -26.56,35.3 -16.32,-1.81 -24.6,28.14 -40.7,9.31 -7.4,-1.83 -23,5.55 -26.24,-1.61 -5.17,-11.4 39.64,-10.63 44.5,-9 -8.21,-11.67 11.53,-10.85 18,-8 1.42,-13.5 20.31,-19.2 31,-26 m -511,-9 c 1.94,5.84 7.18,11.63 5,18 -5.01,-0.92 -10.02,-1.58 -15,-1 8.44,14.72 23.15,2.32 30,19 -9.52,0.36 -13.32,-5.34 -23,-5 2.52,3 5.13,2.33 9,3 -3.07,4.77 -5.74,3.61 -7,8 10.17,-0.5 29.76,-3.98 36,7 -5.5,0.88 -10.09,0.58 -14,4 5.73,0.06 11.39,-0.49 17,-1.65 8.26,5.32 16.11,11.36 25,15.65 -3.41,-4.27 -7.06,-10.12 -7,-16 -9.51,0.35 -8.57,-0.24 -11.73,-9.74 -5.97,-17.98 -14.47,-22.71 -6.27,-0.26 -17.59,-2.51 -23.83,-32.7 -38,-41 m 341,69 c 1.64,-7.77 -8.93,7.43 2,-9 -9.04,4.32 -19.74,3.71 -28,9 3.72,-3.56 5.57,-7.54 6,-13 -9.98,3.85 -15.98,15.72 -4,19 -1.71,9.54 -12.22,9.34 -19.63,11.94 -9.17,3.22 -20.22,15.89 -28.37,17.06 8.15,-15.85 16.77,-15.04 29.9,-27.34 3.21,-3 16.79,-35.07 5.6,-29.35 -6.17,3.15 -18.81,-0.75 -16,-10.24 5.79,-16.68 17.75,3.37 24.5,1.93 5.99,3.88 9.52,8.19 17,5.27 13.51,-5.27 8.04,-28.02 20,-32.71 3.82,-1.5 8.53,5.17 13.5,4.13 10.08,-2.12 11.7,-20.01 20.5,-21.06 8.59,-2.99 7.58,8.87 14,11.89 9.07,4.28 17.23,-9.82 23.5,1.48 3.12,5.61 -0.43,9.18 -3.52,13.72 -14.04,10.29 -11.64,10.24 -13.46,26.28 -3.07,8.33 -25.23,31.28 -34.52,31.59 -10.91,-4.7 -11.02,-8.35 -21.43,-1.45 -4.45,7.66 -12.83,21.86 -22.68,12.38 -6.22,-17.13 -1.79,-20.25 15.11,-21.52 m 155,-58 c -0.69,-1.23 -1.02,-2.57 -1,-4 -6.02,5.64 -8.84,14.07 -18,17 0.72,-3.85 0.14,-7.78 2,-12 -5.06,8.05 -6.08,17.33 -17,19 -0.92,-4.38 0.08,-8.38 3,-12 -9.42,9.51 -12.17,22.65 -17,4 -3.66,1.88 -11.83,28.37 -24,18.78 -9.13,-7.19 9.81,-30.38 17,-34.15 14.86,1.03 17.9,-9.43 29,-14.72 8.61,-4.1 15.91,1.55 25.9,-1.91 6.86,-2.38 19.15,-4.35 19.07,6 -0.06,9.14 -12.59,10.03 -18.97,14 m -632,-29 c -1.83,5.2 1.94,11.18 5,15 -8.72,-3.95 -17.29,-10.78 -26,-13 5.61,8.5 14.71,12.94 21,20 -2.79,0.56 -3.65,0.92 -6,1 v 2 c 20.71,0.77 35.47,13.98 56,19 -6.67,-9.66 -16.14,-21.8 -26,-28 1.86,5.94 6.45,10.16 9,16 -18.74,-4.89 -20.99,-22.77 -33,-32 m 209,96 c -15.35,-4.77 -40.17,0.09 -44,-21 -28.07,9.28 -29.21,-3.79 -50.52,-17.47 -2.28,-3.56 -2.53,-6.79 -4.28,-10.53 2.19,-11.42 -13.58,-16.92 -11.19,-25 2.14,-7.26 2.36,-5.38 11.03,-5.93 11.8,-0.74 12.29,-6.09 16.6,-16.58 13.08,-8.22 19.98,8.46 22.59,18.5 7.87,7.49 19.54,1.94 26.63,8.79 6.34,6.13 1.86,15.4 8.15,21.89 11.75,12.1 13.52,-0.5 12.61,17.82 -0.3,6.06 5.5,7.09 9.02,11.57 2.28,5.07 1.63,12.5 3.36,17.94 m 410,-104 c -0.37,21.13 -27.77,8.86 0,0 m 20,-16 c 0.53,10.04 -6.43,7.87 0,0 m -64,22 c -10.7,-1.57 -16.37,-20.95 -3,-20.91 22.01,8.35 -0.09,8.62 3,20.91 m -523,-23 c -5.49,3.4 -18.93,0.83 -16,-8.98 0.83,-8.25 18.6,-4.55 16,8.98 m 583,-19 c -0.26,5.25 -0.88,8.35 -5,9 -0.26,-3.93 1.27,-8 5,-9 m -46.15,-3 c 11.21,8.06 8.16,28.02 -8.35,21.93 -12.52,-4.62 0.72,-19.71 8.35,-21.93 m 103.15,-4.65 c 15.86,1 5.9,13.96 -1.67,18.8 -17.36,11.12 -8.65,-15.15 1.67,-18.8 m -43,-0.35 c 4.83,8.12 3.54,21.23 -5,26 0.84,-7.73 -2.52,-21.27 5,-26 m -600,-11 c 9.74,37.75 -30.75,9.16 0,0 m 613,-6 c -0.05,2.01 -0.9,4.3 -2,6 -3.77,-0.95 -5.58,-0.87 -5,-4 2.34,-0.67 4.67,-1.33 7,-2 m -680,-5 c 6.71,3.55 9.03,17.31 10,24 -6.26,-1.14 -10.23,-17.88 -10,-24 m -53,-17.46 c 11.34,0.86 19.49,13.12 5,16.45 -12.99,1.31 -20.92,-12.29 -5,-16.45 m 47,5.46 c -7.77,-8.75 5.07,-12.61 0,0 m -54,-24 c -1.93,6.67 1.81,6.49 7,9 -9.19,26.21 -25.98,-9.98 -7,-9 m 25,-32 c 6.42,6.13 12.79,12.11 18,19 -9.16,2.54 -16.31,-12.82 -18,-19 m 706,-6 c 2.16,13.36 3.73,30.09 -3,42 0.04,-2.72 -1.36,-4.58 -4,-5 0.19,2.23 0,22.6 5.33,19.54 3.96,-2.28 13.42,-24.24 14.67,-29.54 -2.85,2.37 -6.83,7.11 -8,9 -2.98,-11.94 3.08,-19.88 6,-31 -4.8,5.38 -7.54,2.22 -8,-5 h -3 m 57,-1 c -1.34,8.33 -2.67,16.67 -4,25 4.7,-5.46 7.4,-20.71 4,-25 m -2,-22 c 0.19,3.77 0.78,18.93 -8,14 1.61,-5.68 3.62,-11.4 8,-14 m -778,-10 c 11.13,9.6 10.34,13.27 5,26 -7.41,-6.06 -12.74,-18.55 -5,-26 m 772,77 c 3.22,-4.55 7.57,-5.11 13,-7 -15.27,-5 9.29,-20.69 17,-23 -13.04,-3.17 9.71,-25.15 14,-31 -7.39,3.63 -10.68,12.07 -18,16 0.23,-5.15 1.23,-10.15 3,-15 -7.41,7.79 -10.01,22.1 -15.42,32.18 -6.8,12.68 -15.85,23.55 -24.58,34.82 6.06,7.09 -4,11.45 -10.57,13.66 -22.02,7.4 -3.38,-9 2.13,-16.28 4.78,-6.31 13.67,-16.24 13.67,-24.38 -4,-6.94 -8.15,-14.43 -3.86,-21.79 3.22,-5.52 8.56,-5.08 14.63,-6.43 7.4,-5.48 4.51,-6.24 6.36,-16.33 4.19,-22.82 18.19,-7.89 33.13,-10.57 17.64,-3.16 20.52,6.73 7.33,20.12 -2.42,8.88 4.87,16.47 2.6,24.84 -1.96,7.25 -15.87,5.4 -21.43,7.79 -20.47,15.76 -1.54,22.92 -32.99,22.37 m -9,-86 c 1.3,2.87 0.71,5.64 -2,7 -0.03,-2.42 0.69,-4.93 2,-7 m -748,-4 c 1.74,13.82 6.77,32.89 23,32 -1.48,7.68 -23.77,19.97 -25.41,7.33 -0.65,-4.97 3.11,-9.33 2.21,-14.33 -3.65,-12.34 -12.19,-14.22 0.2,-25 m 754,-2 c 2.96,2.48 3.2,5.03 0,7 -1.52,-2.69 -1.52,-5.02 0,-7 m -746,12 c -1.66,-5.39 -2.57,-10.64 -1,-16 7.85,1.72 8.47,13.86 1,16 m 706,-24.72 c 12.15,-1.3 18.59,13.75 6,13.72 -8.3,0.88 -13.78,-10.01 -6,-13.72 m 34,-3.28 c 3.08,4.57 5.08,9.57 6,15 -4.82,-3.17 -7.96,-9.53 -6,-15 m -746,-8 c 29.69,9.95 -6.2,21.92 0,0 m 747,-9 c -0.33,1.33 -0.67,2.67 -1,4 3.05,0.99 6.05,0.65 9,-1 0.19,5.08 0.14,10.11 -1,15 -5.44,-4.05 -13.91,-13.86 -7,-18 m -756,0 c 1.36,4.57 2.03,9.23 2,14 -6.97,-0.76 -4.29,-10.58 -2,-14 m 791,-2.37 c 7.8,1.63 19.79,17.69 6,19.87 -10.51,1.66 -11.69,-14.73 -6,-19.87 m -63,16.37 c -18.56,10 -15.33,-14.64 -7.7,-15.39 12.38,-1.21 3.56,7.47 7.7,15.39 m -690,2 c -29.3,9.18 -8.57,-46.08 0,0 m -1,-21 c -22.03,-3.64 21.31,-26.21 0,0 m -33,-18 c 7.65,4.2 6.9,14.73 8,22 -7.58,-4.78 -10.98,-13.68 -8,-22 m -19,71 c -7.81,-4.78 -4.05,-16.18 -1,-24 -12.95,13.53 -9.72,-10.41 -7,-21 -1.94,2.02 -2.76,0.89 -5,4 -7.69,-10.94 -16.25,-25.53 -8,2 -3.23,1.27 -6.57,0.93 -10,-1 6.62,8.05 14.48,15.51 16,27 -4.24,-1.38 -9.35,-2.96 -14,-3 3.36,4.46 10.19,8.98 16,7 4.02,10.64 7.62,19.13 13,29 -6.53,1.85 -12.98,2.13 -17.25,-3 -3.07,-14.73 -12.45,-12.17 -16.93,-24 -1.09,-2.88 0.83,-6.93 1.23,-9.4 1.48,-9.28 -5.86,-10.52 -9.34,-17.73 -4.96,-10.29 9.18,-17.5 6.5,-29.16 -7.58,-32.99 19.5,4.15 28.79,7.29 8.95,8.71 3.6,9.95 8.06,21.5 1.97,5.11 10.02,6.69 11.41,11.52 1.91,7.1 -8.09,18.34 -12.47,22.98 m 18,-86 c 1.78,3.2 3.79,4.41 2,7 -4.3,-1.28 -3.37,-4.04 -5,-7 h 3 m 759,31 c -6.66,-3.85 -6.08,-8.74 -6,-17 -5.09,-9.21 -8.48,-7.5 -6.09,-17.67 7.59,-32.29 11.86,30.24 12.09,34.67 m -751,-31 c -6.94,-45.43 20.52,-19.41 0,0 m 745,-44 c 0.74,5.87 1.18,12.01 1,18 -6.97,-5.33 -8.58,-13.2 -1,-18 m -750,-2 c 2.8,6.57 2.08,14 0,21 -8.4,-5.89 -4.07,-15.84 0,-21 m 721,-2 c -0.5,6.01 -2.17,11.68 -5,17 -7.28,-2.26 -9.41,-6.88 -14,-2 4.24,1.47 14.76,9.54 19.52,7.09 3.93,-2.02 5.69,-20.86 -0.52,-22.09 m -706,12 c -6.62,-4.29 -13.67,-16.1 -14,-24 8.32,4.46 12.73,14.78 14,24 m -45,-38 c -1.1,5.92 -1.12,24.58 -13.38,11.53 -8.69,-9.25 5.52,-12.19 13.38,-11.53 m 832,8 c -6.69,0.56 -21.91,8.13 -17.37,-7 14.86,-19.97 12.63,-1.45 17.37,7 m -58,-17 c 0.32,1.24 0.03,2.25 -1,3 -2.47,-2.2 -2.49,-3.39 1,-3 m -740,-12 c 4.84,6.56 4.22,13.87 1,21 -7.36,-4.48 -6.45,-14.93 -1,-21 m -34,-6 c -1.19,1.86 -1.86,3.86 -2,6 10.92,-0.72 -4.82,19.06 -12.33,14.57 -9.22,-5.51 4.25,-31.06 14.33,-20.57 m 759,89 c 3.64,10.47 9.99,19.69 14,30 -18.64,-2.35 -16.44,-20.49 -32.5,-23.47 -16.18,-3 -10.39,-16.45 -17.5,-27.52 -3.3,-5.14 -11.88,-6.45 -10.76,-14.02 9.72,-19.44 18.5,-6.42 31.76,2 1.74,-7.19 9.24,-29.39 2,-33 -0.9,4.94 -1.58,10.08 -2,15 -7.51,-8.88 -4.75,-22.46 -9,-32 -2.02,13.88 2.28,27.37 4,41 -12.41,-7.04 -33.79,-20.7 -22.43,-36.53 11.87,-8.94 9.61,-13 11.71,-25.34 1.93,-11.3 19.41,-2.49 21.14,4.87 1.64,6.95 -2.13,13.44 5.07,18.49 5.51,3.87 6.64,8.67 3.33,14.5 -6.43,11.34 6.34,12.98 9.98,22 3.06,7.59 -7.14,13.14 -6.38,21 4.7,7.65 11.11,20.8 -2.42,23.02 m -715,-101 c -4.33,-1.53 -6.26,-5.53 -5,-10 4.26,1.57 5.06,4.88 5,10 m 45,-20 c 4.29,8.99 8.35,5.55 15,3 0.67,5.51 -0.02,10.84 -2.07,16 1.22,5.23 4.81,9.43 4.57,15 -0.14,3.26 -5.62,4.91 -7.28,8.1 -2.12,4.07 -0.02,10.38 0.13,14.9 -7.03,12.16 -14.36,3.19 -17.42,20 -8.14,6.16 -14.04,5.62 -23.94,7 0,-5.01 2.44,-5.27 4,-9.72 12.31,-11.02 4.52,-1.16 7.26,-11.28 1.63,-6.02 7.27,-8.64 10.72,-13.32 1.71,-13.49 10.23,-24.4 17.02,-35.68 -6.87,2.54 -9.78,9.37 -16,14 -7.29,-8.86 -4.57,16.3 -11,21 -0.76,-5.66 -1.43,-11.32 -2,-17 -5.17,5.24 -4.96,15.17 2,18 -5.31,11.58 -12.52,28.92 -21,37 -4.24,-12.5 21.01,-32.88 6,-37 v 11 c -10.21,-6.58 -5.95,-10.18 -4,-17.53 8.34,-5.51 5.35,-11.99 8.8,-20.45 4.43,-5.91 10.4,-4.14 17.19,-6.85 5.7,-3.67 7.12,-11.91 12.02,-16.17 m 668,16 c -18.71,-4.28 11.7,-32.45 0,0 m -8,-29 c -3.29,-1.15 -5.11,-3.61 -5,-7 4.37,0.66 6.31,2.8 5,7 m -683,-7 c -0.41,2.91 -2.08,4.91 -5,6 -1.39,-4 1.86,-3.93 5,-6 m 665,-14 v 2 h -2 c -0.03,-1.18 0.77,-1.79 2,-2 m 4,-6 c -0.36,2.39 -0.86,3.89 -3,5 0.74,-3.72 -0.28,-5.65 3,-5 m -638,13 c -7.57,0.44 -14.32,-5.52 -12.69,-13.5 3.99,-19.61 21.02,-5.56 12.69,13.5 m 632,-24 c 18.97,-4.21 3.28,19.75 0,0 m -619,12 c -10.53,-1.88 -8.24,-17.72 1.45,-19.4 22.85,-3.95 1.56,15.08 -1.45,19.4 m 608,-23 c 2.71,4.33 2.63,10.07 1,15 -6.46,-3.06 -4.68,-9.14 -1,-15 m -53,-5 c 5.4,11.75 4.23,21.77 14.66,31.42 6.58,6.09 9.21,17.73 19.34,18.58 0.11,-9.04 -3.79,-20.46 -14,-20.67 -10.06,-8.23 -12.83,-10.18 -6,-23.33 -4.54,-2.3 -9.2,-4.3 -14,-6 m 42,-1 c 0.73,2.19 0.03,4.02 -2,5 0.09,-2.24 0.26,-3.66 2,-5 m 49,-16 c 3.18,12.1 10.27,25.21 8,38 -3.82,-4 -8.15,-7.33 -13,-10 5.36,8.92 13.96,16.35 19,26 4.37,0.77 12.21,-23.46 14,-27 -4.42,-0.01 -8.09,1.66 -11,5 -0.5,-8.17 10.52,-24.15 -2,-27 -1.24,4.53 -1.93,9.38 -2,14 -5.12,-5.64 -8.31,-15.14 -13,-19 m -640,-15 c 19.9,3.89 -2.34,13.74 0,0 m 555,-7 c 1.12,4.83 0.62,8.94 4,11 -0.15,-5.7 -0.06,-9.02 -4,-11 m -16,-11 c 0.89,4.32 2.56,8.32 5,12 1.23,-4.54 -0.93,-9.51 -5,-12 m 81,16 c 2.23,-10.76 5.04,-12.3 13.55,-11.01 4.94,0.75 7.27,8.88 9.02,13.01 6.55,6.8 13.27,4.96 21.43,7.08 3.6,2.71 3.62,4.74 6.55,7.92 -2.35,14.99 10.98,9.17 13.81,20 1.25,4.77 -4.88,10.13 -6.72,14 -1.47,8.81 9.07,15.22 4.5,23.34 -5.55,9.85 -10.64,11.68 -6.85,23.66 -2.96,8.81 -15.29,14.27 -10.28,25 5.62,-6.55 14.41,-13.66 17.25,-22 0.7,-11.95 9.2,-21.32 8.13,-32.51 -0.72,-7.49 -6.44,-13.58 -2.06,-20.43 3.46,-5.4 4.82,-12.39 0.99,-17.76 -8.66,-12.12 -12.13,-21.51 -24.31,-29.17 -15.31,-0.14 -18.8,-15.18 -33.93,-18.52 -14.72,-3.24 -17.38,6.11 -11.08,17.39 m -120,-23 c 2.12,1.32 -0.13,2.1 4,2 -1.06,-1.35 -2.39,-2.02 -4,-2 m 20,-2 c 0.71,1.24 3.87,10.59 3,9 -5.55,1.37 -11.61,-3.95 -17,-5 9.93,7.5 21.15,14.6 32,21 -5.29,-8.52 -12.53,-16.31 -18,-25 m -565,21 c -0.99,-0.78 -4.29,-3.28 -6,-4 -0.16,10.8 -0.1,20.78 -5,31 -4.37,-4.96 -3.75,-23.25 -10.53,-22 -1.9,0.35 3.09,37.14 1.53,42 -3.74,-4.15 -5.14,-11.32 -12,-8 7.77,12.42 7.59,25.29 9,39 3.43,-3.75 5.51,-12.45 7,-18.98 4.66,-7.17 14.41,-10.83 20.3,-17.27 17.43,-19.08 -14.22,6 -17.3,8.26 2.35,-18.4 20.35,-27.47 29,-42 -6.69,-0.56 -11.33,7.4 -16,11 5.51,-16.62 15.34,-62.34 0,-19.01 m 66,-3 c 16.69,-1.8 31.8,5.81 48,8 -2.4,-2.77 -5.94,-5.18 -9,-7 12.01,-5.4 18.01,4 29,4 -2.11,-2.84 -3.92,-7.88 -6,-10 7.02,-1.47 13.87,0.62 21,1 -3.65,-4.71 -2.65,-8.04 3,-10 -17.46,-4.05 -12.46,2.47 -29,6.19 -8,2.02 -11.74,-3.98 -22,3.06 -4.05,0.77 -6.29,-3.74 -10.02,-3.25 -8.84,3.7 -18.51,4.9 -27.98,3.48 -4.43,3.5 -6.22,5.79 -12,5.52 5.33,-4.39 11.09,-11.02 17.83,-14.1 5.13,-2.34 10.6,0.12 15.17,-2.26 11.81,-6.16 9.73,-21.19 24.96,-12.6 8.78,4.95 8.18,4.43 18.63,0.33 15.17,-5.95 10.48,1.2 23.91,3.02 3.37,0.46 25.42,-3.84 18.95,8.42 -3.76,7.13 -10.12,8.77 -15.69,14.66 -4.01,4.24 -6.28,14.57 -11.79,16.89 -8.47,3.57 -16.69,-3.52 -25.04,2.72 -9.5,7.09 -15.92,-5.43 -25.43,-6.32 -11,-1.02 -23.27,3.87 -26.5,-11.76 m -61,-34.66 c 6.01,0.17 9.38,4.67 12.38,9.66 0.21,10.62 11.12,16.06 11.33,25 0.22,9.3 -7.93,13.47 -6.7,23.78 2.23,18.73 -15.3,34.73 -30,43.3 -7.11,10.92 -5.22,16.21 -18,22.92 -6.61,-0.01 -7.25,-13.1 -9.28,-17.39 -3.01,-6.34 -9.49,-11.25 -9.72,-18.61 -0.18,-5.79 5.81,-9.24 6.36,-15 -8.31,-25.74 0.17,-11.46 11.42,-30 7.34,-12.11 -1.9,-15.39 15.8,-22.05 13.14,-4.96 4.86,-16.92 16.41,-21.61 m 592,65.66 c -6.18,-1.14 -16.28,-8.34 -25,-10.61 -10.11,3.73 -17.54,2.83 -22.6,-6.29 -5.09,-9.19 -11.63,-1.93 -19.13,-7.67 -4.24,-3.24 -16.54,-26.41 -15.56,-29.43 4.26,-13.15 25.56,-5.22 35.29,-9 1.4,8.54 12.14,6.39 19,8 -5.88,-22.19 -26.72,-8.7 -43,-10.73 -25.59,5.27 -12.72,17.05 -7.1,31.42 6.69,17.08 18.25,16.31 32.19,26.41 7.11,5.15 14.54,3.69 22.9,1.38 6.18,3.25 15.54,11.14 23.01,6.52 m 27,-74 c -2.98,6.3 -8.5,4.97 -14,1.66 -1.68,-1.01 -2.12,-3.41 -1.36,-4.91 2.76,-5.46 11.87,2.53 15.36,3.25 m -522,-4 c 0.07,-19.81 18.12,-0.86 0,0 m -37,-17 c 1.22,7.99 0.69,16.37 -2,24 -5.09,-6.45 -4.9,-20.09 2,-24 m 64,-10 c -0.59,4.26 -2.92,8.05 -7,9 -0.94,-4.42 2.48,-7.37 7,-9 m 481.99,-3.25 c 7.88,6.81 9.22,29.01 -6.66,24.01 -9.26,-2.91 -4.18,-23.71 6.66,-24.01 M 204.72,94.31 c -3.02,12.96 -5.48,28.52 -17,37 0.81,-11.14 8.25,-29.91 17,-37 m 340,-4 c -6,0.41 -9,-2.51 -11,3 11.8,1.82 31.77,10.2 17.51,-9.37 -5.65,-2.01 -5.8,1.42 -6.51,6.37 m -238,7 c 8.22,4.84 15.01,3.13 23.97,5.6 10.96,3.02 21.01,8.57 32.03,11.4 -5.69,-14.22 18.45,1.58 23,4 -2.04,-13.6 14.45,-9.05 21,-12 -12.89,-0.77 -26.4,2.75 -39,-2 2.24,-4.04 7.11,-5.76 12,-8 -11.56,0.16 -22.13,10.59 -33,5 0.82,-3.7 3.15,-6.37 7,-8 -7.03,2.97 -31.86,11.71 -37.31,2 -8.4,-14.98 39.72,-12.21 39.85,-12.26 8.56,-3.15 7.16,-3.6 15.4,0.02 8.48,3.72 21.79,-4.95 27.71,-0.13 6.61,11.2 5.73,11.35 18.34,14.71 2.54,2.2 7.27,5.68 6.86,9.66 -1.04,10.1 -11.94,8.49 -18.78,12.78 -4.69,2.95 -8.38,9.15 -14.08,10.05 -5.59,0.88 -10.31,-4.32 -16,-3.46 -15.76,2.37 -8.98,12.51 -23.05,0.95 -9.43,-7.75 -19.01,-4.57 -28.88,-13.48 -5.55,-5.05 -14.73,-10.9 -17.06,-16.84 m 218,-19 c -0.12,4.03 0.22,8.03 1,12 -7.85,-3.7 -10.58,1.79 -9,10 0.73,-0.71 31.87,-19.18 8,-22 m 77,-2 v 2 h 8 c -2.2,-1.77 -4.87,-2.44 -8,-2 m -98,1 c -13.35,-10.3 -11.39,7.85 -5,9 0.69,-1.23 1.03,-2.57 1,-4 6.44,2.11 12.1,5.06 19,5 -2.94,-7.22 -13.77,-26.01 -15,-10 m 119,-16 c 0.22,3.06 1.56,5.72 4,8 2.8,-5.02 -1.21,-4.99 -4,-8 m -12,0 c -4.68,0.16 -0.75,2.27 -10,1 4.83,4.64 15.03,7.01 12,15 10.45,-0.64 17.13,-1.67 12,8 5.67,1.05 11.33,1.05 17,0 -8.7,-11.13 -20.11,-15.38 -31,-24 m -336,-5 c -1.37,9.76 -0.25,20.87 -10,26 0.24,-9.55 -18.63,-17.81 -8.72,-28.59 5.78,-6.28 13.3,0.02 18.72,2.59 m 259,1 c 1.78,4.57 3.81,11.5 8,15.07 8.74,3.05 16.76,12.3 24.5,14.32 6.22,1.62 23.45,2.74 10.62,13.05 -8.25,6.63 -14.47,4.19 -24.12,5.31 -7.6,7.01 -7.15,9.79 -16.61,4.01 -14.83,-9.05 -4.96,2.11 -20.39,0.23 -14.35,-4.75 -11.67,-10.54 -26.28,-6.08 -13.87,4.24 -12.76,-6.19 -11.81,-15.92 -4.04,-9.22 -10.78,-5.99 -18.91,-10.81 -13.49,-8.01 12.1,-23.27 16,-31.19 4.25,1.49 15.52,8.79 19.78,8.59 1.83,-0.08 4.3,-8.94 8.19,-7.59 6.62,2.3 7.05,10.77 15.02,14.4 6.06,1.67 10.34,-2.09 16.01,-3.39 m 26,0 c 4.29,-10.9 19.59,13.83 17.61,21.25 -2.46,9.22 -32.88,-23.2 -36.43,-25.97 -5.15,-4.03 -26.03,4.29 -22.82,-6.19 6.13,-20.01 36.32,6.63 41.64,10.91 m -154,-19 v 2 c 3.2,1.36 6.2,1.36 9,0 -2.55,-1.78 -5.78,-2.45 -9,-2 m 243,55 h -5 v 2 c 18.67,0 0.2,-15.48 5.54,-22.92 3.32,-11.86 20.78,22.46 21.22,26.92 -7.27,18.79 -1.75,11.64 -22.76,14.48 -4.36,-1.5 -7.23,-1.5 -10.22,-5.47 -8.5,-11.28 -16.45,1.71 -27.15,-5.01 -7.43,-13.89 -16.15,-5.18 -24,-16 -3.64,-14.27 -3.79,-21.68 -14.43,-33.25 -3.89,-4.23 -9.14,-7.89 -3.2,-13.12 4.88,-4.32 16.14,0.64 21,1.95 14.94,-6.89 18.65,-3.71 31,4.93 5.89,2.76 12.58,0.87 16.65,6.23 6.13,8.06 12.07,28.49 11.35,39.26 m -261,-67 c -11.39,20.38 -33.18,31.32 10,25 -10.28,-0.16 -11.5,-1.5 -10,-9 -3.49,2.74 -7.16,3.74 -11,3 5.05,-4.98 13.1,-15.03 11,-19 m 15,-8 c -3.9,5.69 -6.7,12.22 -8,19 2.35,0.02 4.99,-0.85 7,-2 -1.86,-6.21 4.41,-14.42 1,-17 m -153,84 c 4.8,-1.65 9.02,-5.45 13,-9 6.68,-3.27 12.5,0.73 19,-5 -4.31,0.69 -8.64,1.03 -13,1 4.08,-18.97 19.09,-11.39 30,-20 -25.04,1.65 -1.23,-12.74 8,-15 -9.62,-3.27 -5.66,-4.56 -3,-14 -3.59,4.87 -11.43,13.84 -10,0 -3.19,4.68 -6.25,27 -14,27 -8.37,0 2.67,-35.96 4,-40 12.62,7.92 15.95,-1.91 27,-7.43 9.25,-4.63 18.35,0.5 16.59,10.72 -2.74,15.92 1.53,31.74 -15.98,40.86 -4.47,9.4 -5.05,15.02 -15.84,18.92 -6.6,2.38 -8.88,0.83 -11.68,6.94 -3.51,7.66 -9.83,8.13 -17.38,10.04 -14.56,3.68 -17.62,12.23 -21.62,-2.71 -6.21,-23.17 24.65,-25.49 4.91,-2.34 m 181,-87 c -1.07,1.15 -1.74,2.49 -2,4 2.15,-0.64 2.98,-2.07 2,-4 m 73,19 c 3.11,-2.02 8.75,-15.84 14.81,-10.51 3.27,2.88 -3.9,16.68 7.19,8.51 0.69,18.08 -38.81,2.42 -37.39,-12.97 0.7,-7.53 10.71,-13.34 17.35,-8.99 8.13,5.34 -4.35,17.15 -1.96,23.96 m -24,-26 c 3.76,5.96 15.85,29.48 12.17,35 -3.26,4.89 -15.35,-2.15 -19.67,-1.61 -7.93,0.99 -12.93,10.77 -17.38,16.35 -11.71,14.68 -3.52,21.47 12.77,25.5 3.38,4.84 -1.51,9.78 0.73,15.76 5.51,11.05 12.5,11.07 22.32,8.67 9.62,-2.35 6.87,-1.71 14.25,3.91 8.16,6.21 14.02,3.89 23.8,1.07 6.8,0.69 12.74,8.89 20.52,4.79 5.32,-2.81 8,-6.78 13.5,-8.83 16.16,2.37 24.68,-16.04 37.9,-10.61 4.66,1.91 4.57,9.9 10.1,12.52 17.89,5.01 16.62,-8.14 29,10.48 -15.68,-4.15 -24.72,2.18 -39.64,4.49 -11.56,1.79 -27.59,-1.25 -36.36,6.51 11.56,-3.47 34.46,-0.78 18,15 7.15,-7.14 15.53,-11.67 24.38,-16.49 16.6,-9.05 27.05,-0.38 43.63,-5.47 6.35,4.93 15.93,5.53 21.55,10.3 5.59,10.39 8.63,24.42 21.45,23.69 6.23,4.32 12.41,9.75 19,13.98 11.15,2.04 12.24,-2.43 15.45,9.48 2.05,7.61 -0.26,16.91 1.4,22.52 4.98,8.34 9.95,12.4 6.16,22 -7.69,-4.86 -11.62,-17.44 -21,-18 5.43,7.99 10.51,16.23 16.55,23.79 5.74,7.19 6.15,19.16 15.45,15.21 -0.75,5.38 1.68,8.85 7,10 -2.19,4.06 -3.96,8.67 -5,13 4.58,-0.52 8.58,0.81 12,4 -4.43,-9.3 1.16,-19.49 9,-25 -2.06,6.04 3.08,13.71 -4,15 1.03,7.69 1.63,4.36 3,8 2.53,-0.95 4.87,-2.28 7,-4 -1.58,8.72 -4.58,16.81 -13,7 5.16,25.21 13.87,-2.97 20,-1 -3.21,13.35 -4,19.9 -16,29.26 -3.17,6.12 -4.54,10.34 -3.48,17.74 -2.2,5.18 -7.77,8.04 -10.86,13.11 -10.6,17.41 4.15,15.83 5.33,27.89 1.2,12.22 -18.44,14.66 -3.92,28.01 9.39,8.64 7.01,19.45 14.92,29.99 5.59,4.71 14.41,4.86 20.39,9.02 2.31,11.81 12.13,14.21 21.53,20 4.01,6.6 2.73,15.13 2.47,22.73 -0.48,13.86 0.68,52.12 -7.39,59.25 -1.44,-8.42 -2.98,-16.89 -2.98,-25.47 0,-11.08 6.51,-18.57 3.4,-29.84 -3.54,-12.83 -14.13,-18.76 -19.42,-29.69 -12.96,9.95 -19.27,43.98 -0.74,53.14 2.99,1.48 8.1,0.3 10.4,2.49 4.41,4.19 4.46,25.29 4.34,30.37 -11.42,-8.03 -21.49,-22.3 -33.7,-4.78 -6.46,9.27 1.11,17.55 -7.98,25.91 -1,5.88 3.19,15.56 0.73,19.87 -4.52,7.91 -17.08,15.08 -9.74,25.36 5.66,7.93 12.3,8.57 15.69,18.64 0.51,5.64 -6.3,13.76 -8,19 6.93,-6.63 13.24,-15.07 19,-23 -4.94,-1.81 -22.98,-14.07 -24.35,-20 -1.04,-4.48 1.34,-7.11 3.35,-10.86 8.58,-6.89 11.54,-7.3 8.25,-17.61 -1.84,-5.77 2.85,-29.67 6.54,-35.59 5.59,-8.97 12.28,-7.51 18.46,0.2 3.39,10.32 14.61,14.19 16.58,23.87 -3.3,13.11 -9.29,18.72 1.18,29 -1.3,8.94 -4.55,14.35 -14,17 0.24,-1.14 1.07,-7.79 1,-7 -14.22,12.34 1.95,18.87 -13.13,28.26 -25.12,15.65 -31.59,47.76 -53.88,64.74 -1.66,-9.95 -1.18,-20.29 1.58,-30 -3.1,-7.6 -4.32,-15.83 -3.58,-24 -13.17,8.68 -48.68,38.24 -35.68,56.96 21.87,31.5 -36.6,8.4 -47.32,13.77 -4.33,3.55 -11.4,18.81 -17.53,17.18 -5.58,-1.48 -8.09,-5.03 -14.47,-3.08 -8.72,6.84 -13.59,33.25 -24.01,32.46 -7.83,-0.59 -8.4,-5.11 -5.99,-12.29 -17.63,0.99 -41.38,-0.82 -49.01,19.49 -7.53,20.06 -27.71,63.37 -55.99,51.51 11.09,-15.76 40.31,-28.44 26.18,-50.7 -9.33,-14.69 -28.77,-10.27 -43.43,-9.88 -18.35,0.49 -34.65,-2.39 -52.53,-5.99 -56,-11.29 -41.06,49.8 3.78,54.57 -9.02,-9.67 -23.92,-14 -33.09,-26 -4.83,-8.29 -5.35,-23.27 7.09,-23.22 13.85,0.05 34.86,-4.24 46.09,7.1 4.9,4.94 1.06,13.01 7.91,15.12 0.75,-15.13 0.46,-22.65 10,-7 1.53,-13.24 7.45,-9.72 11,2 4.24,-0.31 2.6,-8.7 7,-12 0,4.76 0.67,9.43 2,14 5.61,-3.51 0.8,-10.75 6,-14 1.85,8.48 -3.11,19.03 1,23 -3.95,6.33 -9.63,11.77 -12,18 6.89,-5.79 15.44,-12.89 24,-16 4.1,11.37 -17.04,29.28 -27,30.16 -3.66,0.32 -12.76,-7.82 -16.23,-9.35 -15.06,-6.65 -21.62,-11.51 -30.77,-25.81 17.64,3.06 36.27,7.57 54,3 -16.49,-2.62 -72.01,-21.96 -83,-5 12.81,0 9.48,-4.32 16.71,6.11 5.56,8.03 12.3,6.25 18.26,12.7 9.12,9.87 -3.07,12.29 -7.97,20.19 3.82,0.2 6.38,2.32 7,6 -15.71,-3.77 -34.89,-2.59 -49.46,-9.31 -11.45,-5.28 -14.1,-12.14 -24.54,-10.69 5.86,-5.8 1.36,-23.94 -1.96,-31.45 -7,-15.86 -1.47,-18.58 -17.04,-30.55 -6.89,-11.96 -17.45,-28.31 -34,-25.35 -7.76,-5 -10.04,-14.48 -18.7,-19.36 -18.19,-10.24 -20.72,7.82 -32.3,14.82 -8,-0.67 -18.08,0.65 -20.5,9.89 -3.05,11.63 12.03,13.51 11.5,23 -9.01,-4.14 -21.01,-10.63 -28.38,-18 -5.59,-13.62 -17.85,-19.56 -22.91,-33.5 -3.21,-8.84 12.85,-18.3 14.39,-28.97 2.29,-15.82 -9.79,-27.98 -17.1,-40.53 -2.38,5.55 -6.12,9.8 -10.12,14.59 -8.11,9.7 -6.68,27.95 -18.88,16.41 3.25,9.8 6.53,19.72 11.7,28.72 4.3,7.48 12.31,12.25 16.23,19.34 3.07,5.56 -2.58,7.84 -7.93,7.93 -0.81,-2.36 -2.64,-4.19 -5,-5 -1.69,12.76 7.77,14.33 18.48,14.12 8.25,-0.16 9.77,3.23 14.59,10.27 8.28,12.09 8.08,18.42 22.92,23.61 -2.22,1.95 -3.55,4.28 -4,7 -10.27,-5.16 -17.84,-12.47 -26,-19 1.35,10.23 12.66,14.31 7,23 14.94,-4.37 30.52,7.16 40,18 16.86,-6.14 -13.67,5.65 -11,5 h 10 c -11.47,6.4 3.07,14.28 3,26 4.44,-3.45 26.98,-15.52 22.26,1 -5.09,17.83 -52.38,-3.32 -43.26,-26 -6.71,2.05 -12.68,0.35 -18,3 8.23,0.36 8.64,4.91 9.34,12 5.04,10.21 15.18,17.12 26.13,19.6 11.57,2.62 23.66,1.1 30.79,-8.82 8.46,-11.77 17.26,-8.44 30.74,-4.78 -0.45,-4.92 -1.6,-11.25 -2,-15 7.86,4.59 39.68,14.18 46,4 1.62,5.88 -1.07,10.27 -8,10 0.33,3.98 2.33,7.32 6,10 -7.16,-0.7 -30.58,1.13 -25,-13 -5.06,-1.68 -10.58,2.48 -13,6 2.25,3.08 4.92,5.75 8,8 -2.75,0.89 -2.7,0.75 -5,1 15.97,18.19 -10.36,16.72 -5,1 -6.15,-0.08 -10.47,3.76 -8.8,9.5 1.02,3.5 4.5,6.24 7.8,7.93 15.19,2.15 27.01,-3.28 40.88,7.29 9.87,7.52 -19.23,14.33 -10.38,21.24 8.85,6.91 29.72,11.41 38.5,4.04 -8.79,0.22 -22.15,3.44 -13,-8 -4.83,1.97 -9.83,3.3 -15,4 -1.44,-31.12 31.48,-12.62 41.35,-0.3 21.11,26.35 38.28,-10.3 57.15,-16 7.31,-2.21 16.09,16.45 19.82,20.99 13.03,12.03 30.83,8.95 44.82,0.5 4.84,-2.93 12.52,-14.02 18.62,-9.44 9.32,7.01 12.05,22.38 27.25,18.26 -12.36,-1.95 -30.85,-20.25 -12,-28 2.09,7.61 22.81,35.03 28,23 -12.38,-1.68 -23.35,-13.05 -23,-26 7.71,3.26 29.25,23.66 38,20.64 9.05,-3.13 5.67,-12.66 -1.04,-16.01 -13.93,-6.94 -35.02,3.27 -45.97,-15.84 -2.12,-3.71 0.63,-2.33 1.02,-5.62 3.21,-2.12 6.74,-3.14 10.58,-3.06 4.62,-3.27 1.7,-9.88 7.42,-14.11 -0.36,5.19 2.05,8.81 7,10 -1.54,-18.69 13.88,-19.13 25.27,-10.58 23.85,17.91 55.45,16.82 83.73,15.58 -14.06,-4.29 -23.08,0.12 -37.31,-2.58 -13.65,-2.59 -35.9,-1.52 -20.24,-14.97 3.96,-3.4 6.29,-11.69 11.55,-13.21 3.65,-1.06 10.41,5.21 16.03,5.03 13.02,-0.4 20.84,3.64 32.91,-4 3.8,0.56 4.15,-0.51 6.88,3.23 2.8,3.84 5.22,11.29 7.18,15.7 0.79,1.77 6.66,1.21 7.18,4.82 -0.73,5.13 -5.1,5.51 -9.18,7.35 -3.25,2.99 -6.27,6.2 -9.06,9.63 -9.58,2.25 -15.7,-2.05 -25.15,1.81 -16.56,6.77 -24.54,-10.9 -41.79,0.84 -15.77,1.91 -20.29,-31.48 -43,-27.65 6.99,7.21 18.23,9.01 24.93,19.38 2.45,3.79 4.56,9.36 9.07,11.62 8.16,1.65 18.67,-4.27 25.18,-2.64 11.11,18.51 25.16,3.95 40.29,4.46 13.91,0.47 26.61,-8.32 36.66,-17.6 6.27,-5.8 3.85,-9.01 1.53,-14.47 -11.33,-5.45 -13.88,-19.82 -26.66,-21.67 -6.45,-0.93 -15.33,10.08 -20.11,3.92 -5.92,-7.79 6.76,-13.51 11.04,-15.87 5.96,-3.77 4.29,-5.16 9.81,-5.76 9.08,10.09 25.2,1.28 36.64,4.5 17.96,5.07 21.27,-10.65 35.57,-11.84 14.55,-1.21 13.98,-7.38 26.09,-15.5 18.28,-12.24 23.01,-58.32 -9.18,-47.58 -3.23,1.08 -18.24,7.21 -17.06,-2.46 1.04,-8.55 5.32,-21.9 13.18,-26.5 0.2,9.07 -7.1,17 6,17 11.59,-4.45 22.17,-11.27 31,-20 16.53,-0.4 25.34,-5.66 35.94,-18 8.43,-17.65 -15.75,-9.25 -20.63,-5.13 -11.82,9.98 -25.43,37.31 -42.75,36.13 17.48,-24.62 17.93,-49.12 46.1,-66.45 12.87,-7.92 17.33,-17.69 33.33,-13.39 12.59,-5.07 12.09,-16.38 21,-23.7 12.76,-2.31 25.9,-11.51 24.42,-25.69 -0.46,-4.45 -4.57,-11.22 -3.78,-15.27 1.17,-6 6.4,-10 7.82,-16.5 0.05,-13.2 -12.19,-14.1 -22.08,-11.53 -11.75,3.05 -18.68,-3.64 -31.38,0.53 4.12,-17.3 19.54,-21.04 33,-28.61 15.87,-13.03 4.08,-30.01 7,-46.39 -8.66,7.33 -23.75,6.25 -28,19 9.65,-4.99 21.25,-14 26,3 -12.29,3.14 -15.37,2.87 -28,-1 -5.59,9.25 -6.4,18.11 -1.37,28 -1.52,7.55 -14.08,18.83 -18.63,27 -1.73,-20.31 0.95,-45.57 6.28,-65.48 3.63,-13.54 8.59,-26.68 12.29,-40.2 4.18,-15.24 9.18,-4.18 15.42,-15.32 -7.33,0.57 -28.43,-9.88 -19,-19.96 5.97,-9.55 24.3,7.87 24,15.96 16.61,-10.46 8.55,-40.17 8,-56 -7.89,2.83 -26.44,20.4 -30.9,27.35 -7.55,11.76 -6.13,20.95 -0.86,33.65 -0.55,4.22 -2.08,8.06 -4.58,11.51 -8.46,5.89 -6.25,12.78 -10.66,21.49 -16.41,-27.59 -17.42,-75.18 -12,-106 -8.84,0.63 -13.97,1.07 -16.82,-11 5.17,-14.04 -3.29,-20.14 -9.07,-31.92 -3.08,-6.29 -11.45,-7.03 -13.54,-14.08 -1.98,-6.72 6.38,-12.79 1.21,-18.94 -16.92,-14.33 -4.02,-14.14 -9.78,-32.06 -4.44,3.17 -7.01,9.87 -9,16 -15.31,-10.71 -4.55,-22.56 -9,-38 4.15,-18.55 -6.3,-20.68 -11.67,-36.64 -3.96,-11.76 -2.65,-29.65 -9.54,-39.83 -4.33,-6.4 -14.46,-8.22 -20.79,-11.53 -3.67,18.14 -8.49,48.49 18,51.63 15.45,13.07 8.46,30.2 15,47.38 -10.62,1.93 -9.96,-30.11 -22,-36 1.17,23.76 -19.52,-14.28 -22.24,-20.14 -9.59,-20.69 -9.73,-4.69 -21.76,-0.86 12.63,-40.37 -7.32,-66.95 -36.33,-92.12 -17.12,-14.85 -33.78,-10.34 -52.67,-10.12 -12.26,-5.4 -28.74,-1.63 -29,13.24 -8.8,-6.19 -17.74,-12.16 -26.58,-18.28 -3.81,-4.91 -3.19,-11.49 -6.74,-16.72 C 515.43,4.15 495.61,5.78 479.72,8.31 m -70,23 c 3.67,-2.34 27.02,-44.38 34.67,-21.96 1.47,4.31 -1.81,6.77 -4.08,10.22 -4.36,6.64 1.72,12.59 -2.56,18.57 -3.09,4.33 -10.81,4.75 -14.69,6.63 -2.76,1.95 -2.19,6.57 -4.23,9.09 -5.83,7.21 -21.87,4.29 -29.85,8.14 -8.77,4.23 -19.64,5.53 -25.26,-2.7 -4.93,-19.34 9.91,-15.74 7.41,-34 7.02,-8.9 13.3,-6.29 21.76,-14.2 4,-2.43 4.16,-13.36 11.01,-5.85 11.87,13.01 8.25,6.42 5.82,26.06 m -230,130 c -4.87,-23.1 29.1,-50.8 34,-74 -18.5,-7.98 -23.12,28.2 -31,33 -0.42,-11 3.51,-23.94 -10,-25 -3.03,21.59 -4.96,43.31 -7.1,65.01 -1.34,13.54 -8.04,12.07 -9.9,22.99 -14.35,-14.93 -40.8,-60.56 -54.05,-19.5 -2.4,7.43 -16.83,7.58 -21.34,14.52 -9.07,13.96 -1.37,14.04 -18.04,25.26 -4.7,7.94 1.03,14.5 0.43,22.72 -8.97,18.46 3.42,30.86 10.56,48 7.54,18.09 -5.03,44.18 -8.24,62.42 -4.05,23.05 -7.15,46.28 -9.32,69.58 -1.51,-4.56 -2.78,-11.83 -6.56,-16 -4.96,-2.58 -10.61,-6.15 -10.74,-12.47 -0.13,-6.11 6.09,-6.85 9.7,-10.83 7.71,-8.52 4.32,-18.11 1.5,-28.04 -2.4,-8.45 -7.26,-25.72 -15.49,-30.2 -4.3,-2.34 -12.3,16.42 -13.98,19.94 -13.46,28.17 9.93,41.03 17.58,65.6 -5.66,-1.18 -9.5,-4.02 -15,-4 8.85,12.51 24.63,8.96 28.91,28.03 3.25,14.48 9.7,24.88 10.09,40.97 -9.29,-10.1 -20.67,-19.18 -31.38,-27.22 -7.06,-5.3 -18.23,-4.77 -22.87,3.22 -1.28,2.2 -0.96,5.55 -1.75,8 3.91,12.86 -1.19,16.92 -5.72,29 -0.02,5.94 0.68,7.12 4.62,12.71 7.1,10.06 1.43,8.88 2.47,19.29 0.95,9.54 12.36,11.24 17.15,18.02 5.15,7.28 2.39,10.56 11.48,15.43 15.85,-2.66 29.94,17.9 38.73,28.41 13.93,16.66 19.38,39.06 26.27,59.14 -16.04,-3.69 5.42,13.08 7,15 -19.7,3.96 -34.99,-18.27 -33.2,-35 -5.01,-25.58 -20.51,-22.5 -36.06,-35 -8.65,2.64 -6.56,31.32 -1.82,40.02 5.24,9.61 15.32,14.26 26.07,12.31 10.26,3.98 20.6,12.42 29.72,18.79 10.81,7.56 47.77,34.87 14.36,38.25 -11.97,1.21 -14.6,2.48 -20.99,12 -6.56,9.77 7.66,16.68 10.2,24.13 3.74,10.99 1.82,19.1 13.71,25.89 12.44,3.62 16.73,3.34 28.68,9.54 10.81,5.61 16.06,-4.6 25.32,-2.15 10.86,6.26 13.34,14.23 27,11.22 -9.43,-8.49 -24.22,-18.93 -37.42,-12.87 -12.37,5.68 -18.79,-8.67 -30.52,-10.07 -14,-1.67 -14.37,-7.61 -18.13,-20.49 -2.32,-7.92 -16.4,-17.56 -11.89,-25.36 5.23,-9.06 9.58,-4.35 19.96,-5.87 13.49,-3.75 12.43,-12.21 23.26,4.67 9.51,4.73 8.76,-0.04 19.74,-1 -8.98,-4.45 -11.91,-10.96 -13,-22 -2.13,1.61 -3.13,3.94 -3,7 -10.3,-5.02 -19.44,-13.32 -24,-24 6.58,5.51 10.91,-2.02 12,-5 1.28,7.91 0.46,15.25 5,19 0,-16.92 0.13,-17 -4.52,-27.52 -6.23,-9.15 -15.35,-18.19 -19.99,-27.48 -3.13,-6.26 4.67,-8.16 -2.11,-14.99 -4.87,-4.9 -11.4,-2.83 -14.44,-11.01 -1.55,-6.06 6.38,-10.19 5.69,-16 -10.72,-18.57 -2.28,-15.54 3.95,-31.5 2.85,-7.29 -4.53,-13.29 1.76,-18.82 10.98,-9.66 20.04,12.04 27.66,16.78 22.64,-3.47 14.03,9.24 17.96,21.54 2.24,7.01 7.95,9.14 9.43,16 0.43,2.02 -4.02,4.89 -3.89,7 0.7,2.49 5.85,13.9 4.75,16 -1.55,2.95 -5.99,5.59 -8.34,8.02 -1.96,4.08 1.98,8.04 1.19,12.48 -0.33,1.89 -1.98,6.96 -5.1,5.98 -8.4,-2.63 -2.82,-27.89 -1,-33.48 -2.09,1.68 -4.39,3.85 -6,6 -4.96,-12.24 -2.83,-21.88 2,-34 -4.67,-0.54 -8.79,4.48 -11,8 -3.09,-9.46 0.15,-13.78 1,-23 -2.76,0.22 -3.58,2.12 -5,4 -3.44,-4.77 -5.76,-17.79 -13,-16 1.94,5.25 3.61,10.58 5,16 -3.42,-2 -7.09,-3.34 -11,-4 5.83,9.83 14.99,15.55 18,27 -5.05,-2.14 -17.81,-11.19 -22,-5 13.18,3.75 23.92,13.85 28,27 -6.29,-1.69 -8.98,-3.93 -15,-4 8.7,9.67 17.64,11.18 20.68,25.04 2.14,9.77 2.81,22.33 8.32,29.96 4.01,-21.17 27.35,-38.82 21.22,-61 1.48,-10.8 7.38,-10.69 0.8,-20.7 -6.23,-9.49 -8.94,-24.57 -16.17,-32.04 -5.75,-5.94 -11.02,-4.52 -17.85,-8.05 -5.22,-6.5 -12.48,-11.29 -20.64,-13.16 -15.24,-3.5 -27.39,11.37 -25.15,-17.03 0.64,-1.23 1.04,-2.07 2,-3 12.52,-0.28 19.24,-3.95 24.89,-15.26 6.97,-13.97 2.34,-28.31 1.9,-42.77 -6.42,10.66 -22.48,10.41 -32.72,18.25 -10.7,-3 -1.44,-27.76 2.24,-34.25 -0.23,-8.67 0.25,-20.03 6.05,-27 7.89,-9.48 18.68,-4.51 28.61,-9.3 7.28,-3.51 8.6,-5.65 9.49,-12.69 6.15,-6.03 13.72,-7.29 16.16,-16.86 2.08,-8.14 9.05,-11.68 10.55,-19.16 1.51,-7.57 -0.8,-15.16 0.13,-22.97 1.16,-9.78 -0.61,-13.26 -9.51,-18.97 -5.32,-1.81 -21.49,-6.27 -26.48,-2.58 -5.5,18.84 -6.18,14 -17.52,21.66 -6.87,4.65 -8.32,1.59 -10.82,11.46 -1.69,6.65 -1.11,11.02 -8.18,12.4 9.28,-23.24 23.45,-44.13 34,-67 26.38,23.76 46.3,-11.78 54,-33 -14.85,-3.15 -27.59,1.86 -41.46,5.32 1.06,-10.1 16.74,-17.09 25.86,-20.89 13.24,-5.52 4.47,-5.1 11.19,-13.03 3.98,-4.7 12.59,3.94 14.41,5.1 6.1,1.58 8.35,1.54 15.09,-0.23 11.45,-3 14.04,3.17 25.35,1.91 9.86,-1.09 13.24,-5.83 23.4,-5.25 9.95,0.57 15.7,-3.25 22.52,-10.43 5.84,-6.15 25.8,-16.05 23.78,-26.58 -3.24,-16.85 -32.6,-18.83 -47.14,-17.64 -12.36,6.63 -17.36,9.35 -27.5,-0.78 -2.04,-2.04 -2.12,-3.9 -0.52,-6.33 7.23,-10.97 32.91,-20.08 44.54,-25.93 23.15,-11.64 36.68,-19.74 56.13,0.78 8.11,8.56 14.28,10.52 26.35,11.04 4.3,3.53 8.45,8.2 14,9.33 6.49,1.32 13.66,-2.9 19,-6.31 5.32,1.59 14.15,3.26 19.47,0.93 6.18,-2.7 23.68,-12.68 28.21,-17.25 3.49,-3.52 3.29,-8.35 1.51,-12.76 -4.45,-11.02 -16.98,-8.09 -22.47,-19.98 -9.73,-5.46 -14.71,0.97 -24.72,-0.3 -15.28,-7.95 -16.18,-1.41 -31.5,-1.25 -4.87,0.05 -10.8,-1.8 -10.53,-7.4 0.51,-10.52 21.81,0.19 26.11,-1.5 29.71,-11.65 58.62,-0.81 80.87,-30.58 5.45,-14.75 16.21,-44.04 -11.73,-39.93 -10.09,1.48 -12.85,3.49 -22.55,0.15 -7.49,-2.58 -10.87,-1.79 -17.68,1.53 -4.71,1.68 -10.22,8.92 -16.26,11.38 -15.96,6.52 -7.76,16.53 -20.11,27.15 -1.15,2.24 -1.29,11.61 -3.97,12.36 -16.57,4.64 -13.1,-15.51 -14.42,-27.39 -2.24,-20.2 -21.51,-20.82 -35.13,-7.09 -7.68,7.75 -16.63,-1.24 -23.73,6.07 -4.72,4.85 -5.46,12.17 -11.04,15.88 -8.47,5.63 -18.82,6.47 -20.34,18.88 1.62,8.38 8.67,14.71 1.05,21.64 -5.91,5.38 -11.37,4.8 -11.66,13.86 -0.82,25.78 -45.05,42.9 -57.38,65.53"
         id="path1463"
         inkscape:connector-curvature="0" />
    </g>
    <g
       transform="matrix(0.4,0,0,0.4,236.59,667.12)"
       id="lys"
       style="fill:#ffffff;fill-opacity:1;stroke:none;stroke-opacity:1">
      <path
         d="m 355.65,280.19 c 0,0 -3.75,-8.1 -8.1,-12.6 -4.36,-4.51 -9.68,-7.58 -11.04,-6.53"
         transform="translate(-1.35,-0.76)"
         style="fill:#ffffff;fill-opacity:1;fill-rule:evenodd;stroke:none;stroke-width:0.25000001pt;stroke-linecap:butt;stroke-linejoin:miter;stroke-opacity:1"
         id="lys_1"
         inkscape:connector-curvature="0" />
      <path
         d="m 368.97,258.94 c -2.29,0.08 -5.9,1.92 -7.85,3.87 -2.59,2.6 -3.52,7.58 -3.59,9.44 -0.07,1.86 -1.32,-0.84 -2.19,-2.37 -0.86,-1.54 -1.93,-5.4 -2.22,-3.22 -0.28,2.2 -0.34,3.26 0.07,5.72 0.4,2.45 1.59,7.15 2.56,8.68 l 3.97,3.94 c 1.87,-1.88 3.1,-6.25 3.19,-6.25 l -0.07,9.34 4.35,4.32 c -1.16,-2.37 -1.94,-6.58 -1.63,-10.38 0.32,-3.8 2.3,-8.59 2.06,-10.44 -1.14,-0.4 -2.9,2.58 -5.21,1.88 -0.08,-1.75 0.74,-6.02 1.9,-7.69 1.17,-1.66 4.43,-5.7 6.41,-6.28 -0.36,-0.42 -0.99,-0.59 -1.75,-0.56 z"
         style="fill:#ffffff;fill-opacity:1;fill-rule:evenodd;stroke:none;stroke-width:0.25000001pt;stroke-linecap:butt;stroke-linejoin:miter;stroke-opacity:1"
         id="lys_2"
         inkscape:connector-curvature="0" />
      <path
         d="m 329.36,254.28 c 9.62,-4.95 19.64,8.3 19.64,8.3 0,0 1.44,-9.25 3.32,-9.36 1.88,-0.11 4.87,7.31 4.87,7.31 0,0 5.76,-7.64 15.72,-7.58 9.97,0.05 11.57,9.13 5.87,9.57 -5.66,0.44 -2.38,-5.15 -2.27,-3.65 0.06,0.17 -5.37,-7.75 -19.15,7.86 -2.03,2.3 -3.94,-8.46 -4.93,-6.09 -1.21,2.88 -0.22,6.26 -1.11,8.53 1.39,1.71 -11.35,-13.84 -16.77,-9.58"
         transform="translate(-1.35,-0.76)"
         style="fill:#ffffff;fill-opacity:1;fill-rule:evenodd;stroke:none;stroke-width:0.25000001pt;stroke-linecap:butt;stroke-linejoin:miter;stroke-opacity:1"
         id="lys_3"
         inkscape:connector-curvature="0" />
      <use
         transform="matrix(0,1,1,0,74.5,-74.49)"
         xlink:href="#lys_3"
         style="fill:#ffffff;fill-opacity:1;stroke:none;stroke-opacity:1"
         id="use1474"
         x="0"
         y="0"
         width="100%"
         height="100%" />
      <use
         transform="matrix(0,1,1,0,74.9,-74.93)"
         xlink:href="#lys_1"
         style="fill:#ffffff;fill-opacity:1;stroke:none;stroke-opacity:1"
         id="use1476"
         x="0"
         y="0"
         width="100%"
         height="100%" />
      <use
         transform="matrix(0,1,1,0,74.82,-74.82)"
         xlink:href="#lys_2"
         style="fill:#ffffff;fill-opacity:1;stroke:none;stroke-opacity:1"
         id="use1478"
         x="0"
         y="0"
         width="100%"
         height="100%" />
    </g>
  </defs>
  <g
     id="club_1"
     transform="translate(0.05,-0.70612213)">
    <use
       height="100%"
       width="100%"
       id="use1490"
       y="0"
       x="0"
       xlink:href="#base" />
    <use
       height="100%"
       width="100%"
       id="use1492"
       y="-199.117"
       x="4"
       xlink:href="#ace" />
    <use
       height="100%"
       width="100%"
       id="use1494"
       transform="rotate(180,163.575,-30.28)"
       y="-30.280001"
       x="163.575"
       xlink:href="#ace" />
    <use
       height="100%"
       width="100%"
       id="use1496"
       transform="rotate(180,13.65,-185.117)"
       y="-185.117"
       x="13.65"
       xlink:href="#club" />
    <use
       height="100%"
       width="100%"
       id="use1498"
       y="-44.279999"
       x="153.925"
       xlink:href="#club" />
    <use
       height="100%"
       width="100%"
       id="use1500"
       transform="matrix(-2.4,0,0,-2.4,167.5752,-243.13728)"
       y="-50.653599"
       x="34.911499"
       xlink:href="#club" />
    <use
       height="100%"
       width="100%"
       y="0"
       x="0"
       id="use1502"
       transform="matrix(0.0875,0,0,0.0875,44.623,-159.8)"
       xlink:href="#laurel" />
  </g>
</svg>
